{
    "name": "TOO FACED 24-Hour Lash Boosting System", 
    "price": 115, 
    "id": "2FLONGSTEMLASH1", 
    "snippet": "This dual sided eyeliner and contains liquid liner on one side and a night boosting serum on the other.", 
    "brandName": "SALE", 
    "imageUrl": "http://www.polyvore.com/cgi/img-thing?.out=jpg&size=l&tid=57063761", 
    "description": "Introducing a 24-hour lash boosting system! This dual treatment formula offers a jet-black, lash enhancing liquid eye liner for day and a powerful, clear serum for night. Long Stemmed Lashes is clinically proven to enhance the appearance of lash length, thickness, fullness and health within just 4-8 weeks of use. Unique double-sided component works around the clock to provide two treatment lining options - deep black for a dramatic, precise liquid line for day and a clear serum for an detectable application for night."
}