{
    "name": "Tarte Amazonian Clay Volumizing Brow & Hair Powder", 
    "price": 278, 
    "id": "amazonian-clay-volumizing-brow-powder", 
    "snippet": "A volumizing formula for flawlessly defined eyebrows and hair.", 
    "brandName": "Tarte", 
    "imageUrl": "http://www.sephora.com/productimages/sku/s1604958-main-hero-300.jpg", 
    "description": "The secret weapon for great brows, this volumizing formula is rich and ultrafine, making it ideal for filling in sparse brows. It seamlessly defines the arch without harsh lines, and comes in versatile shades that are infused with Amazonian clay and mineral pigments. The weightless and fine-grained powder clings to natural hair to abate surface oil, lock pigment in place, and camouflage roots and thinning hairlines.", "color": "true"
}