{
    "name": "BareMinerals Up Close & Beautiful: 30 Day Complexion Starter Kit", 
    "price": 238, 
    "id": "bareminerals-up-close", 
    "snippet": "A skin-smoothing, 30-day starter kit with a foundation primer and finishing powder.", 
    "brandName": "Bareminerals", 
    "imageUrl": "http://www.sephora.com/productimages/sku/s1641927-main-hero-300.jpg", 
    "description": "This Up Close & Beautiful Kit leaves you with radiant, healthy-looking skin, beginning with a 30-day supply of award-winning ORIGINAL Foundation Broad Spectrum SPF 15 and signature beauty essentials. Get covered with Prime Time Foundation Primer, which supports getting rid of flaky dryness, fine lines, excess oil, and the appearance of enlarged pores. ORIGINAL Foundation delivers flawless coverage with a no-makeup look and feel. The lightweight, tinted concealer is formulated with broad spectrum SPF 20 for protection from harmful sun rays, and the Mineral Veil finishing powder tops off the look, leaving skin with soft radiance.", "color": "true"
}