{
    "name": "Too Faced Brow Envy Brow Shaping & Defining Kit", 
    "price": 299, 
    "id": "brow-envy-brow-shaping-defining-kit", 
    "snippet": "An eyebrow shaping and defining palette.", 
    "brandName": "Too Faced", 
    "imageUrl": "http://www.sephora.com/productimages/sku/s1604024-main-hero-300.jpg", 
    "description": "This foolproof palette contains everything a glamour girl needs to shape, define, fill, and set brows. It features customizable color for brunettes and blondes: simply use the stencils and mix the two shades for your ideal brow shape and color."
}