{
    "name": "Too Faced Cat Eyes Palette", 
    "price": 368, 
    "id": "cat-eyes-palette", 
    "snippet": "A long-wear eye shadow palette with matte, shimmer, and glitter shades to create an array of cat eye looks.", 
    "brandName": "Too Faced", 
    "imageUrl": "http://www.sephora.com/productimages/sku/s1626027-main-hero-300.jpg", 
    "description": "This set features the Too Faced signature Glamour Guide, with three iconic cat-eye beauty looks to get you started. From sheer washes of color to highly-pigmented shadows, it includes nine shades in warm and cool tones. Three vivid, wet-and-dry formulas provide intense precision lining and a perfect wing tip for foolproof, dramatic eyes in minutes."
}