{
    "name": "First Aid Beauty Dual Repair Power Serum", 
    "price": 459, 
    "id": "dual-repair-power-serum", 
    "snippet": "An antiaging face serum that improves skintone, and reduces the appearance of fine lines and wrinkles while strengthening the skin barrier.", 
    "brandName": "First Aid Beauty", 
    "imageUrl": "http://www.sephora.com/productimages/sku/s1487107-main-hero-300.jpg", 
    "description": "Dual Repair Power Serum contains concentrated levels of the Dual Repair key actives and is enhanced with diacetyl boldine to improve skintone and siegesbeckia extract to calm the skin.This serum is cruelty-free and is free of alcohol, fragrance, artificial dyes, lanolin, mineral oil, petrolatum, propylene glycol, and PEGs. It does not contain parabens, sulfates or phthalates. For optimal results, follow with Dual Repair Face Cream."
}