{
    "name": "First Aid Beauty Anti Redness Serum 50ml", 
    "price": 298, 
    "id": "first-aid-beauty-anti-redness-serum-50ml", 
    "snippet": "A serum packaged in an airless pump that calms skin, relieves visible redness, and reduces flare ups.", 
    "brandName": "First Aid Beauty", 
    "imageUrl": "http://www.sephora.com/productimages/sku/s1217769-main-hero-300.jpg", 
    "description": "Anti-Redness Serum is packed with caffeine, a natural vasoconstrictor that can help with visible skin redness. It is recommended for anyone experiencing any type of redness including redness due to rosacea, ruddy skin, and chronic or temporary irritation. Colloidal sulfur combats the root cause of facial redness, aloe soothes and calms, ginger works as a natural, powerful anti-redness agent, and bisabolol aids penetration of the formula's active ingredients. FAB Antioxidant Booster completes the picture by defending the skin against free radical damage for a smooth, healthy-looking complexion."
}