{
    "name": "First Aid Beauty Gentle Cleansing Wipes 30Pieces", 
    "price": 169, 
    "id": "first-aid-beauty-gentle-cleansing-wipes-30pieces", 
    "snippet": "A convenient packet of towelettes that gently remove makeup, surface oils, and impurities.", 
    "brandName": "First Aid Beauty", 
    "imageUrl": "http://www.sephora.com/productimages/sku/s1496231-main-hero-300.jpg", 
    "description": "Perfect for use any time of day, whenever your skin needs instant refreshing, FAB Gentle Cleansing Wipes clean the skin and remove all traces of makeup, surface oils, and impurities. The combination of chamomile, aloe, and bisabolol calm and soothe the skin, while botanical antioxidants stave off free radical damage."
}