{
    "name": "Tarte Gifted Amazonian Clay Smart Mascara", 
    "price": 239, 
    "id": "gifted-amazonian-clay-smart-mascara", 
    "snippet": "A reparative and volumizing mascara infused with Amazonian clay.", 
    "brandName": "Tarte", 
    "imageUrl": "http://www.sephora.com/productimages/sku/s1328913-main-hero-300.jpg", 
    "description": "This mascara delivers a 406 percent increase in lash volume and offers long-term reparative, rebuilding, and strengthening benefits with each swipe, giving you instant results and better lash health. Amazonian clay, known for intuitively restoring hydration and the skin's texture, also works to hydrate and replenish dry and brittle lashes to prevent fallout. This natural clay performs all day by absorbing oil and keeping the mascara in place for flake-free, longer wear. It prevents lash loss and promotes lash health, and after daily wear, lashes are intact, healthier, and stronger. Amazonian clay also enriches the pure color pigments, creating a volume-boosting formula with higher intensity and truer color. The result is healthier and more voluminous lashes that won't ever flake or transfer."
}