{
    "name": "Too Faced Lip Injection", 
    "price": 255, 
    "id": "lip-injection", 
    "snippet": "A lip treatment designed to help plump your lips.", 
    "brandName": "Too Faced", 
    "imageUrl": "http://www.sephora.com/productimages/sku/s1493998-main-hero-300.jpg", 
    "description": "Lip Injection is a clear cosmetic that enhances your pucker for lasting fullness. Its patented formula is based on medically-proven blood vessel dilating technology touted to create the sexiest pout this side of a plastic surgeons office. This wonder wand is a celebrity secret weapon against puny, lifeless lips."
}