{
    "name": "Too Faced Melted Liquified Long Wear Lipstick", 
    "price": 229, 
    "id": "melted-liquified-long-wear-lipstick", 
    "snippet": "An intensely saturated lip color with a precise tip applicator.", 
    "brandName": "Too Faced", 
    "imageUrl": "http://img.bb-cdn.com/assets/productimages/large/toofacedmeltedliquifiedlongwearlipstick_1_gl.jpg?version=19120518", 
    "description": "The shine of a gloss, lasting power of a stain, and pigment-packed color of a liquid lipstick, all in one high-impact formula. Bold, long-wearing color glides on cleanly with the precision tip applicator, delivering rich color with staying power.", "color": "true"
}