{
    "name": "Too Faced Perfect Eyes Waterproof Eyeliner", 
    "price": 185, 
    "id": "perfect-eyes-waterproof-eyeliner", 
    "snippet": "A creamy, long-wearing eyeliner that glides on with the ease of a liquid liner and locks down for eight hours of budge-proof, smudge-proof wear. ", 
    "brandName": "Too Faced", 
    "imageUrl": "http://img.bb-cdn.com/assets/productimages/medium/toofacedperfecteyeswaterproofeyeliner_1_gm.jpg?version=19120518", 
    "description": "These high-impact pencils come in various waterproof shades ranging from the necessary classics to cutting-edge couture. Each includes a flexi-firm, beveled smudger to allow a smoky blend or precise line. Once applied, this eyeliner won't transfer, smudge, or budge, and unlike most other waterproof formulas, it even holds up to tears. This creamy smooth liner glides on effortlessly never pulling, skipping, or slipping.", "color": "true"
}