{
    "name": "Too Faced Size Queen Mascara", 
    "price": 205, 
    "id": "size-queen-mascara", 
    "snippet": "A mascara and brush that work together to create magnificent lashes.", 
    "brandName": "Too Faced", 
    "imageUrl": "http://www.sephora.com/productimages/sku/s1324722-main-hero-300.jpg", 
    "description": "This keratin-infused, curl-setting formula works synergistically with the gigantic, dual-helix brush to create big lashes. The massive, corkscrew-shaped brush includes two types of bristles. Long, lengthening bristles and short, volumizing fibers allow you to grab, coat, and condition every single lash for a lavish, layered effect. In just one coat, lashes are ultra-long, thick, defined and curled."
}