{
    "name": "Tarte Smooth Operator Amazonian Clay Pressed Finishing Powder", 
    "price": 348, 
    "id": "smooth-operator-amazonian-clay-pressed-finishing-powder", 
    "snippet": "A complexion-perfecting powder.", 
    "brandName": "Tarte", 
    "imageUrl": "http://www.sephora.com/productimages/sku/s1604883-main-hero-300.jpg", 
    "description": "Set makeup in place all day with this lightweight powder formula. Amazonian clay helps mattify skin, minimize the appearance of pores, and reduce excess oil, leaving skin with a soft-focus finish."
}