{
    "name": "Tarte The Brow Architect\u2122 Brow Shaper, Liner & Definer", 
    "price": 259, 
    "id": "the-brow-architect-brow-shaper-liner-definer", 
    "snippet": "A three-in-one shaper, liner, and definer to achieve the look of perfectly groomed brows.", 
    "brandName": "Tarte", 
    "imageUrl": "http://www.sephora.com/productimages/sku/s1604859-main-hero-300.jpg", 
    "description": "This easy-to-use formula and tool combines the three essentials for flawless eyebrows. The universal pencil has an angled precision tip to fill in sparse areas naturally with lightweight, color-rich pigment. Underscoring concealer creates a matte highlight to the skin below the brows for additional definition, camouflaging stray hairs with instant focus. Use the built-in round brush to comb brows, setting the seamless, finished look."
}