{
    "name": "Too Faced Natural Eye Neutral Eye Shadow Collection", 
    "price": 359, 
    "id": "too-faced-natural-eye-neutral-eye-shadow-collection", 
    "snippet": "A small palette packed with nine neutral shades, and a how-to Glamour Guide to help you achieve the look.", 
    "brandName": "Too Faced", 
    "imageUrl": "http://www.sephora.com/productimages/sku/s1604016-main-hero-300.jpg", 
    "description": "Natural Eyes comes housed in a sleek, mirrored tin with a step-by-step guide to creating universally flattering looks. It features nine neutral shadows, including three new hues, larger sizes of three complementary shadows, and three Too Faced favorites. Too Faced co-founder Jerrod Blandino designed the Natural Eyes Palette as the must-have solution for women who want to create a natural-looking eye appropriate for every day."
}